{
    "epoch": 900000,
    "rolloutStats": {
        "count": 4000.0,
        "max": 5049.73974609375,
        "mean": 20.962234497070313,
        "min": 0.3769524097442627,
        "stddev": 171.32862854003906
    }
}
