{
    "currentVersion": 19,
    "learningRate": 1.0000000116860974e-07,
    "minMeanLoss": 20.962234497070313,
    "prevMeanLoss": 26.727645874023438,
    "saveIteration": 25,
    "versionIteration": 25
}
