{
    "currentVersion": 19,
    "learningRate": 1.0000000116860974e-07,
    "minMeanLoss": 20.86528205871582,
    "prevMeanLoss": 23.7635498046875,
    "saveIteration": 25,
    "versionIteration": 25
}
